[
  {
    "name": "Smelter",
    "powerConsumption": 4,
    "ingredients": [
      {
        "amount": 5,
        "name": "Iron Rod"
      }, {
        "amount": 8,
        "name": "Wire"
      }
    ],
    "recipes": [
      {
        "building": "Smelter",
        "duration": 2,
        "materialNeeds": [
          {
            "amount": 1,
            "name": "Iron Ore"
          }
        ],
        "resultingAmount": 1
      }
    ],
    "width": 6,
    "length": 9,
    "height": 9,
    "inputs": [
      {
        "name": "Conveyor",
        "amount": 1
      }
    ],
    "outputs": [
      {
        "name": "Conveyor",
        "amount": 1
      }
    ]
  }, {
    "name": "Refinery",
    "powerConsumption": 30,
    "ingredients": [
      {
        "amount": 10,
        "name": "Motor"
      }, {
        "amount": 10,
        "name": "Encased Industrial Beam"
      }, {
        "amount": 30,
        "name": "Steel Pipe"
      }, {
        "amount": 20,
        "name": "Copper Sheet"
      }
    ],
    "recipes": [
      {
        "building": "Refinery",
        "duration": 12,
        "materialNeeds": [
          {
            "amount": 7,
            "name":"Iron Ore"
          }, {
            "amount": 4,
            "name": "Water"
          }
        ],
        "resultingAmount": 13
      }
    ],
    "width": 12,
    "length": 20,
    "height": 30,
    "inputs": [
      {
        "name": "Pipeline",
        "amount": 1
      }, {
        "name": "Conveyor",
        "amount": 1
      }
    ],
    "outputs": [
      {
        "name": "Pipeline",
        "amount": 1
      }, {
        "name": "Conveyor",
        "amount": 1
      }
    ]
  }
]
